Lab05/simulation/qsim/Lab05.msim.vcd
$comment
	File created using the following command:
		vcd file Lab05.msim.vcd -direction
$end
$date
	Thu Apr 24 11:09:49 2025
$end
$version
	ModelSim Version 10.1d
$end
$timescale
	1ps
$end
$scope module ULA_vlg_vec_tst $end
$var reg 4 ! A [3:0] $end
$var reg 4 " B [3:0] $end
$var reg 2 # op_sel [1:0] $end
$var wire 1 $ flag_n $end
$var wire 1 % flag_z $end
$var wire 1 & S [3] $end
$var wire 1 ' S [2] $end
$var wire 1 ( S [1] $end
$var wire 1 ) S [0] $end
$var wire 1 * sampler $end
$scope module i1 $end
$var wire 1 + gnd $end
$var wire 1 , vcc $end
$var wire 1 - unknown $end
$var tri1 1 . devclrn $end
$var tri1 1 / devpor $end
$var tri1 1 0 devoe $end
$var wire 1 1 flag_n~output_o $end
$var wire 1 2 flag_z~output_o $end
$var wire 1 3 S[3]~output_o $end
$var wire 1 4 S[2]~output_o $end
$var wire 1 5 S[1]~output_o $end
$var wire 1 6 S[0]~output_o $end
$var wire 1 7 op_sel[0]~input_o $end
$var wire 1 8 op_sel[1]~input_o $end
$var wire 1 9 A[3]~input_o $end
$var wire 1 : B[3]~input_o $end
$var wire 1 ; inst3|inst3|inst1~1_combout $end
$var wire 1 < B[2]~input_o $end
$var wire 1 = A[2]~input_o $end
$var wire 1 > B[0]~input_o $end
$var wire 1 ? A[0]~input_o $end
$var wire 1 @ A[1]~input_o $end
$var wire 1 A B[1]~input_o $end
$var wire 1 B inst6|inst3|inst4~0_combout $end
$var wire 1 C inst3|inst3|inst1~0_combout $end
$var wire 1 D inst3|inst3|inst1~2_combout $end
$var wire 1 E inst3|inst1|inst1~1_combout $end
$var wire 1 F inst3|inst1|inst1~0_combout $end
$var wire 1 G inst3|inst1|inst1~2_combout $end
$var wire 1 H inst3|inst|inst1~0_combout $end
$var wire 1 I inst3|inst2|inst1~2_combout $end
$var wire 1 J inst3|inst2|inst1~3_combout $end
$var wire 1 K inst5|inst~0_combout $end
$upscope $end
$upscope $end
$enddefinitions $end
#0
$dumpvars
b100 !
b100 "
b0 #
x$
x%
x)
x(
x'
x&
x*
0+
1,
x-
1.
1/
10
x1
x2
x3
x4
x5
x6
07
08
09
0:
x;
1<
1=
0>
0?
0@
0A
xB
xC
xD
xE
xF
xG
xH
xI
xJ
xK
$end
#956
0B
#1016
0E
#1246
0H
#1264
0F
#1399
0;
#1585
0G
#1687
1C
#1728
0I
#1994
1D
#2048
0J
#2322
1K
#4152
06
0)
#4881
11
1$
#4906
13
1&
#4974
04
0'
#5199
02
0%
#5796
05
0(
#50000
b1100 !
b1000 !
b1100 "
b1000 "
0*
#50735
19
1:
#50886
0=
0<
#52570
0C
#52894
0D
#53238
0K
#55780
01
0$
#55845
03
0&
#56131
12
1%
#120000
b1010 !
b1011 !
b1 #
b1111 !
1*
#120725
1=
1@
1?
#120735
17
#121738
1;
1E
#122295
1D
#122623
1K
#125182
11
1$
#125207
13
1&
#125500
02
0%
#160000
b111 !
b101 !
b100 !
b0 !
0*
#160886
0=
0@
0?
#160896
09
#162125
0;
#162735
0D
#163079
0K
#165621
01
0$
#165686
03
0&
#165972
12
1%
#210000
b11 #
b10 #
1*
#210775
18
#210896
07
#211959
1;
#212516
1D
#212844
1K
#215403
11
1$
#215428
13
1&
#215721
02
0%
#240000
b1000 !
b1010 !
b1011 !
b1111 !
0*
#240725
1=
1@
1?
#240735
19
#241927
1H
#241949
1F
#242255
1G
#242448
1I
#242753
1J
#244817
16
1)
#245654
14
1'
#246334
15
1(
#280000
b0 "
b11 #
1*
#280735
17
#280896
0:
#281725
0F
0I
#281728
0;
0H
#282045
0J
#282046
0G
#282338
0D
#282682
0K
#284634
06
0)
#284971
04
0'
#285224
01
0$
#285289
03
0&
#285575
12
1%
#286257
05
0(
#360000
b1 #
b0 #
0*
#360896
07
#360936
08
#361912
0E
#361924
1F
#361925
1I
#361927
1;
1H
#362230
1J
1G
#362484
1D
#362506
1K
#364817
16
1)
#365131
14
1'
#365371
11
1$
#365383
02
0%
#365396
13
1&
#366309
15
1(
#370000
b111 !
b101 !
b100 !
b0 !
1*
#370886
0=
0@
0?
#370896
09
#372100
0F
#372125
0;
#372132
0H
#372421
0G
#372735
0D
#372743
0I
#373063
0J
#373532
0K
#375038
06
0)
#375621
01
0$
#375686
03
0&
#375989
04
0'
#376425
12
1%
#376632
05
0(
