Lab04/simulation/qsim/cla.msim.vcd
$comment
	File created using the following command:
		vcd file cla.msim.vcd -direction
$end
$date
	Thu Apr 24 10:56:21 2025
$end
$version
	ModelSim Version 10.1d
$end
$timescale
	1ps
$end
$scope module cla_vlg_vec_tst $end
$var reg 4 ! a [3:0] $end
$var reg 4 " b [3:0] $end
$var reg 1 # cin $end
$var wire 1 $ cout $end
$var wire 1 % s [3] $end
$var wire 1 & s [2] $end
$var wire 1 ' s [1] $end
$var wire 1 ( s [0] $end
$var wire 1 ) sampler $end
$scope module i1 $end
$var wire 1 * gnd $end
$var wire 1 + vcc $end
$var wire 1 , unknown $end
$var tri1 1 - devclrn $end
$var tri1 1 . devpor $end
$var tri1 1 / devoe $end
$var wire 1 0 cout~output_o $end
$var wire 1 1 s[3]~output_o $end
$var wire 1 2 s[2]~output_o $end
$var wire 1 3 s[1]~output_o $end
$var wire 1 4 s[0]~output_o $end
$var wire 1 5 a[3]~input_o $end
$var wire 1 6 b[3]~input_o $end
$var wire 1 7 a[2]~input_o $end
$var wire 1 8 b[2]~input_o $end
$var wire 1 9 b[1]~input_o $end
$var wire 1 : a[1]~input_o $end
$var wire 1 ; b[0]~input_o $end
$var wire 1 < a[0]~input_o $end
$var wire 1 = cin~input_o $end
$var wire 1 > inst11~0_combout $end
$var wire 1 ? inst11~1_combout $end
$var wire 1 @ inst11~2_combout $end
$var wire 1 A inst16~combout $end
$var wire 1 B inst10|inst2~combout $end
$var wire 1 C inst1|inst1~combout $end
$var wire 1 D inst9~combout $end
$var wire 1 E inst6~0_combout $end
$var wire 1 F inst5|inst2~combout $end
$var wire 1 G inst1|inst2~combout $end
$var wire 1 H inst|inst2~combout $end
$upscope $end
$upscope $end
$enddefinitions $end
#0
$dumpvars
b0 !
b0 "
0#
x$
x(
x'
x&
x%
x)
0*
1+
x,
1-
1.
1/
x0
x1
x2
x3
x4
05
06
07
08
09
0:
0;
0<
0=
x>
x?
x@
xA
xB
xC
xD
xE
xF
xG
xH
$end
#3460
0D
#3639
1@
#3900
1E
#3941
0A
#4060
0C
#4181
0>
#4182
1B
#4205
0H
#4206
1F
#4323
0?
#4392
0G
#7259
02
0&
#7295
00
0$
#7350
03
0'
#7537
01
0%
#8002
04
0(
#10000
b100 !
b100 "
0)
#10666
17
#10690
18
#14036
0@
#14366
0B
#17751
11
1%
#90000
b1100 !
b1100 "
b1000 !
b1000 "
1)
#90660
16
#90670
15
#90830
07
#90852
08
#94216
1@
#94226
0F
#94356
1A
#94495
1F
#94528
1B
#97754
10
1$
#97883
01
0%
#200000
b0 !
b0 "
0)
#200822
06
#200832
05
#204801
0A
#208155
00
0$
